{
  "file_generated_by": "FlutterFire CLI",
  "purpose": "FirebaseAppID & ProjectID for this Firebase app in this directory",
  "GOOGLE_APP_ID": "1:1053622597578:ios:9c8a6914afc8c452fe4133",
  "FIREBASE_PROJECT_ID": "liquid-muse-345411",
  "GCM_SENDER_ID": "1053622597578"
}